%YAML 1.1
%TAG !u! tag:unity3d.com,2011:
--- !u!1 &16804200451012075
GameObject:
  m_ObjectHideFlags: 0
  m_CorrespondingSourceObject: {fileID: 0}
  m_PrefabInstance: {fileID: 0}
  m_PrefabAsset: {fileID: 0}
  serializedVersion: 6
  m_Component:
  - component: {fileID: 16804200451012074}
  - component: {fileID: 5940387934387492509}
  m_Layer: 13
  m_Name: Ground
  m_TagString: Untagged
  m_Icon: {fileID: 0}
  m_NavMeshLayer: 0
  m_StaticEditorFlags: 0
  m_IsActive: 1
--- !u!4 &16804200451012074
Transform:
  m_ObjectHideFlags: 0
  m_CorrespondingSourceObject: {fileID: 0}
  m_PrefabInstance: {fileID: 0}
  m_PrefabAsset: {fileID: 0}
  m_GameObject: {fileID: 16804200451012075}
  m_LocalRotation: {x: 0, y: 0, z: 0, w: 1}
  m_LocalPosition: {x: 0, y: 0, z: 0}
  m_LocalScale: {x: 1, y: 1, z: 1}
  m_ConstrainProportionsScale: 0
  m_Children: []
  m_Father: {fileID: 4615996355168454726}
  m_RootOrder: 0
  m_LocalEulerAnglesHint: {x: 0, y: 0, z: 0}
--- !u!61 &5940387934387492509
BoxCollider2D:
  m_ObjectHideFlags: 0
  m_CorrespondingSourceObject: {fileID: 0}
  m_PrefabInstance: {fileID: 0}
  m_PrefabAsset: {fileID: 0}
  m_GameObject: {fileID: 16804200451012075}
  m_Enabled: 1
  m_Density: 1
  m_Material: {fileID: 0}
  m_IsTrigger: 0
  m_UsedByEffector: 0
  m_UsedByComposite: 0
  m_Offset: {x: -0.23843077, y: -0.8792163}
  m_SpriteTilingProperty:
    border: {x: 0, y: 0, z: 0, w: 0}
    pivot: {x: 0, y: 0}
    oldSize: {x: 0, y: 0}
    newSize: {x: 0, y: 0}
    adaptiveTilingThreshold: 0
    drawMode: 0
    adaptiveTiling: 0
  m_AutoTiling: 0
  serializedVersion: 2
  m_Size: {x: 0.5231351, y: 0.13568449}
  m_EdgeRadius: 0
--- !u!1 &4615996355168454729
GameObject:
  m_ObjectHideFlags: 0
  m_CorrespondingSourceObject: {fileID: 0}
  m_PrefabInstance: {fileID: 0}
  m_PrefabAsset: {fileID: 0}
  serializedVersion: 6
  m_Component:
  - component: {fileID: 4615996355168454726}
  - component: {fileID: 4615996355168454727}
  - component: {fileID: 4615996355168454777}
  - component: {fileID: 4615996355168454776}
  - component: {fileID: 898370388341116846}
  m_Layer: 13
  m_Name: ring
  m_TagString: Collect
  m_Icon: {fileID: 0}
  m_NavMeshLayer: 0
  m_StaticEditorFlags: 0
  m_IsActive: 1
--- !u!4 &4615996355168454726
Transform:
  m_ObjectHideFlags: 0
  m_CorrespondingSourceObject: {fileID: 0}
  m_PrefabInstance: {fileID: 0}
  m_PrefabAsset: {fileID: 0}
  m_GameObject: {fileID: 4615996355168454729}
  m_LocalRotation: {x: 0, y: 0, z: 0, w: 1}
  m_LocalPosition: {x: 13.88, y: -8.25, z: 0}
  m_LocalScale: {x: 0.49, y: 0.49, z: 0.49}
  m_ConstrainProportionsScale: 1
  m_Children:
  - {fileID: 16804200451012074}
  m_Father: {fileID: 0}
  m_RootOrder: 0
  m_LocalEulerAnglesHint: {x: 0, y: 0, z: 0}
--- !u!212 &4615996355168454727
SpriteRenderer:
  m_ObjectHideFlags: 0
  m_CorrespondingSourceObject: {fileID: 0}
  m_PrefabInstance: {fileID: 0}
  m_PrefabAsset: {fileID: 0}
  m_GameObject: {fileID: 4615996355168454729}
  m_Enabled: 1
  m_CastShadows: 0
  m_ReceiveShadows: 0
  m_DynamicOccludee: 1
  m_StaticShadowCaster: 0
  m_MotionVectors: 1
  m_LightProbeUsage: 1
  m_ReflectionProbeUsage: 1
  m_RayTracingMode: 0
  m_RayTraceProcedural: 0
  m_RenderingLayerMask: 1
  m_RendererPriority: 0
  m_Materials:
  - {fileID: 10754, guid: 0000000000000000f000000000000000, type: 0}
  m_StaticBatchInfo:
    firstSubMesh: 0
    subMeshCount: 0
  m_StaticBatchRoot: {fileID: 0}
  m_ProbeAnchor: {fileID: 0}
  m_LightProbeVolumeOverride: {fileID: 0}
  m_ScaleInLightmap: 1
  m_ReceiveGI: 1
  m_PreserveUVs: 0
  m_IgnoreNormalsForChartDetection: 0
  m_ImportantGI: 0
  m_StitchLightmapSeams: 1
  m_SelectedEditorRenderState: 0
  m_MinimumChartSize: 4
  m_AutoUVMaxDistance: 0.5
  m_AutoUVMaxAngle: 89
  m_LightmapParameters: {fileID: 0}
  m_SortingLayerID: -1327306721
  m_SortingLayer: 1
  m_SortingOrder: 3
  m_Sprite: {fileID: 21300000, guid: 79b81a901ba38c043983c66ceb36c190, type: 3}
  m_Color: {r: 1, g: 1, b: 1, a: 1}
  m_FlipX: 0
  m_FlipY: 0
  m_DrawMode: 0
  m_Size: {x: 0.84, y: 1.47}
  m_AdaptiveModeThreshold: 0.5
  m_SpriteTileMode: 0
  m_WasSpriteAssigned: 1
  m_MaskInteraction: 0
  m_SpriteSortPoint: 0
--- !u!50 &4615996355168454777
Rigidbody2D:
  serializedVersion: 4
  m_ObjectHideFlags: 0
  m_CorrespondingSourceObject: {fileID: 0}
  m_PrefabInstance: {fileID: 0}
  m_PrefabAsset: {fileID: 0}
  m_GameObject: {fileID: 4615996355168454729}
  m_BodyType: 0
  m_Simulated: 1
  m_UseFullKinematicContacts: 0
  m_UseAutoMass: 0
  m_Mass: 1
  m_LinearDrag: 0
  m_AngularDrag: 0.05
  m_GravityScale: 1
  m_Material: {fileID: 6200000, guid: bad3f4dc37491df45b8c31496cbea995, type: 2}
  m_Interpolate: 1
  m_SleepingMode: 1
  m_CollisionDetection: 1
  m_Constraints: 4
--- !u!60 &4615996355168454776
PolygonCollider2D:
  m_ObjectHideFlags: 0
  m_CorrespondingSourceObject: {fileID: 0}
  m_PrefabInstance: {fileID: 0}
  m_PrefabAsset: {fileID: 0}
  m_GameObject: {fileID: 4615996355168454729}
  m_Enabled: 1
  m_Density: 1
  m_Material: {fileID: 0}
  m_IsTrigger: 1
  m_UsedByEffector: 0
  m_UsedByComposite: 0
  m_Offset: {x: 0, y: 0}
  m_SpriteTilingProperty:
    border: {x: 0, y: 0, z: 0, w: 0}
    pivot: {x: 0.5, y: 0.5}
    oldSize: {x: 1.57, y: 1.87}
    newSize: {x: 0.84, y: 1.47}
    adaptiveTilingThreshold: 0.5
    drawMode: 0
    adaptiveTiling: 0
  m_AutoTiling: 0
  m_Points:
    m_Paths:
    - - {x: 0.78499997, y: 0.005}
      - {x: 0.78499997, y: 0.36499998}
      - {x: 0.745, y: 0.48499998}
      - {x: 0.635, y: 0.615}
      - {x: 0.355, y: 0.775}
      - {x: 0.24499999, y: 0.79499996}
      - {x: 0.155, y: 0.875}
      - {x: 0.055, y: 0.935}
      - {x: -0.114999995, y: 0.935}
      - {x: -0.255, y: 0.84499997}
      - {x: -0.465, y: 0.815}
      - {x: -0.555, y: 0.715}
      - {x: -0.60499996, y: 0.59499997}
      - {x: -0.59499997, y: 0.48499998}
      - {x: -0.78499997, y: 0.33499998}
      - {x: -0.78499997, y: 0.175}
      - {x: -0.705, y: 0.095}
      - {x: -0.765, y: -0.044999998}
      - {x: -0.78499997, y: -0.105}
      - {x: -0.78499997, y: -0.49499997}
      - {x: -0.765, y: -0.565}
      - {x: -0.72499996, y: -0.625}
      - {x: -0.415, y: -0.905}
      - {x: -0.33499998, y: -0.935}
      - {x: -0.044999998, y: -0.935}
      - {x: 0.205, y: -0.805}
      - {x: 0.505, y: -0.515}
      - {x: 0.66499996, y: -0.265}
    - - {x: -0.405, y: -0.585}
      - {x: -0.415, y: -0.53499997}
      - {x: -0.42499998, y: -0.525}
      - {x: -0.42499998, y: -0.39499998}
      - {x: -0.415, y: -0.385}
      - {x: -0.39499998, y: -0.225}
      - {x: -0.385, y: -0.16499999}
      - {x: -0.36499998, y: -0.085}
      - {x: -0.345, y: -0.055}
      - {x: -0.305, y: 0.044999998}
      - {x: -0.285, y: 0.105}
      - {x: -0.275, y: 0.145}
      - {x: -0.275, y: 0.225}
      - {x: -0.295, y: 0.24499999}
      - {x: -0.255, y: 0.24499999}
      - {x: -0.225, y: 0.255}
      - {x: -0.175, y: 0.275}
      - {x: -0.145, y: 0.295}
      - {x: -0.044999998, y: 0.39499998}
      - {x: -0.024999999, y: 0.445}
      - {x: -0.024999999, y: 0.505}
      - {x: -0.005, y: 0.475}
      - {x: 0.024999999, y: 0.465}
      - {x: 0.105, y: 0.465}
      - {x: 0.16499999, y: 0.48499998}
      - {x: 0.235, y: 0.505}
      - {x: 0.24499999, y: 0.515}
      - {x: 0.33499998, y: 0.515}
      - {x: 0.36499998, y: 0.48499998}
      - {x: 0.385, y: 0.435}
      - {x: 0.405, y: 0.39499998}
      - {x: 0.415, y: 0.325}
      - {x: 0.42499998, y: 0.265}
      - {x: 0.435, y: 0.255}
      - {x: 0.435, y: 0.145}
      - {x: 0.42499998, y: 0.13499999}
      - {x: 0.39499998, y: 0.015}
      - {x: 0.385, y: -0.035}
      - {x: 0.36499998, y: -0.125}
      - {x: 0.345, y: -0.205}
      - {x: 0.295, y: -0.275}
      - {x: 0.24499999, y: -0.355}
      - {x: 0.24499999, y: -0.36499998}
      - {x: 0.114999995, y: -0.49499997}
      - {x: 0.105, y: -0.49499997}
      - {x: 0.065, y: -0.525}
      - {x: 0.005, y: -0.565}
      - {x: -0.085, y: -0.615}
      - {x: -0.105, y: -0.615}
      - {x: -0.175, y: -0.635}
      - {x: -0.255, y: -0.645}
      - {x: -0.265, y: -0.635}
      - {x: -0.375, y: -0.635}
--- !u!114 &898370388341116846
MonoBehaviour:
  m_ObjectHideFlags: 0
  m_CorrespondingSourceObject: {fileID: 0}
  m_PrefabInstance: {fileID: 0}
  m_PrefabAsset: {fileID: 0}
  m_GameObject: {fileID: 4615996355168454729}
  m_Enabled: 1
  m_EditorHideFlags: 0
  m_Script: {fileID: 11500000, guid: 95c9491b08e175b4db04de65eae1d268, type: 3}
  m_Name: 
  m_EditorClassIdentifier: 
